<?xml version="1.0" encoding="utf-8"?>
<!-- Generator: Adobe Illustrator 18.1.1, SVG Export Plug-In . SVG Version: 6.00 Build 0)  -->
<!DOCTYPE svg PUBLIC "-//W3C//DTD SVG 1.1//EN" "http://www.w3.org/Graphics/SVG/1.1/DTD/svg11.dtd">
<svg version="1.1" xmlns="http://www.w3.org/2000/svg" xmlns:xlink="http://www.w3.org/1999/xlink" x="0px" y="0px"
	 viewBox="0 0 25.6 42.8" enable-background="new 0 0 25.6 42.8" xml:space="preserve">
<g id="Layer_1">
</g>
<g id="Star_Favorite">
</g>
<g id="Events_Calendar">
	<g>
		<path fill="#FFFFFF" d="M24.5,42.8c-1.6-9.6-9.2-20.9-12-20.9C9.6,22,1.4,33.2,0.1,42.8H24.5z"/>
		<ellipse fill="#EDE2BE" cx="12.3" cy="18.3" rx="8.5" ry="11.3"/>
		<path fill="#FFFFFF" d="M3.8,15.6h17l4.7-11.3C16.2-2.4,4.6-0.2,0,3.7C1.1,7,3.8,15.6,3.8,15.6z"/>
		<g>
			<g>
				<path fill="#D8D8D8" d="M15.3,7c0.3-1,0.8-2.4-0.3-3.1c-0.4-0.2-0.7-0.3-1.1-0.3c-0.4,0-0.7,0.1-0.9,0.2c-0.1,0-0.2,0.1-0.3,0.1
					c-0.1,0-0.2-0.1-0.3-0.1c-0.2-0.1-0.5-0.2-0.9-0.2c-0.4,0-0.7,0.1-1.1,0.3c-1,0.7-0.6,2.1-0.3,3.1c0.1,0.3,0.2,0.6,0.2,0.7
					c0,0.3,0,0.6,0,1c0,0.6-0.1,1.2,0,1.7c0.2,0.8,1,1.5,1,1.5c0.1,0.1,0.2,0.1,0.2,0.1c0,0,0,0,0,0c0.2,0,0.4-0.2,0.4-0.4
					c0,0,0-0.1,0-0.1c0-0.2-0.2-1.3,0.1-2.1c0.2-0.5,0.5-0.8,0.6-0.9c0.1,0.1,0.4,0.4,0.6,0.9c0.3,0.8,0.1,2.1,0,2.1
					c0,0.2,0,0.3,0.2,0.4c0.1,0,0.1,0.1,0.2,0.1c0.1,0,0.2,0,0.3-0.1c0,0,0.8-0.6,1-1.5c0.1-0.5,0.1-1.1,0-1.7c0-0.4-0.1-0.7,0-1
					C15.1,7.6,15.2,7.3,15.3,7z"/>
			</g>
		</g>
	</g>
</g>
</svg>
