<?xml version="1.0" encoding="utf-8"?>
<!-- Generator: Adobe Illustrator 18.1.1, SVG Export Plug-In . SVG Version: 6.00 Build 0)  -->
<!DOCTYPE svg PUBLIC "-//W3C//DTD SVG 1.1//EN" "http://www.w3.org/Graphics/SVG/1.1/DTD/svg11.dtd">
<svg version="1.1" xmlns="http://www.w3.org/2000/svg" xmlns:xlink="http://www.w3.org/1999/xlink" x="0px" y="0px"
	 viewBox="0 0 21 5.2" enable-background="new 0 0 21 5.2" xml:space="preserve">
<g id="Layer_1">
	<polygon points="21,2.1 4.8,2.1 6,0 0,2.6 6,5.2 4.9,3.2 21,3.2 	"/>
</g>
<g id="Star_Favorite">
</g>
<g id="Events_Calendar">
</g>
</svg>
