<?xml version="1.0" encoding="utf-8"?>
<!-- Generator: Adobe Illustrator 18.1.1, SVG Export Plug-In . SVG Version: 6.00 Build 0)  -->
<!DOCTYPE svg PUBLIC "-//W3C//DTD SVG 1.1//EN" "http://www.w3.org/Graphics/SVG/1.1/DTD/svg11.dtd">
<svg version="1.1" xmlns="http://www.w3.org/2000/svg" xmlns:xlink="http://www.w3.org/1999/xlink" x="0px" y="0px"
	 viewBox="0 0 118.4 146" enable-background="new 0 0 118.4 146" xml:space="preserve">
<g id="Layer_1">
	<g>
		<g>
			<circle fill="#62666D" cx="84.7" cy="29.6" r="26.6"/>
			<path fill="#E0E0E0" d="M93.4,16.3c-5.4-3.4-10.7-5.1-16.1-5.1c-4.8,0-8.9,1.4-12.1,2.7c-3.5,4.5-5.5,10.1-5.5,16.2
				c0,14.7,11.9,26.6,26.6,26.6c5.3,0,10.2-1.5,14.3-4.2C104.1,39.3,105.8,24.1,93.4,16.3z"/>
			<g>
				<circle fill="none" cx="85.1" cy="29.5" r="25.3"/>
				<path fill="#9A9A99" d="M112.3,18.2C106.1,3.2,88.9-4,73.8,2.2c-15.1,6.2-22.2,23.5-16,38.5c5.8,14,21.1,21.2,35.3,17.1
					l19.1,46.2l6.2-2.6L99.4,55.3C112.3,48.1,118.1,32.3,112.3,18.2z M94.7,52.9c-12.9,5.3-27.7-0.8-33-13.7
					c-5.3-12.9,0.8-27.7,13.7-33c12.9-5.3,27.7,0.8,33,13.7C113.8,32.8,107.6,47.5,94.7,52.9z"/>
			</g>
		</g>
		<g>
			<g>
				<path fill="#FFFFFF" d="M82.8,70.8c4.8-14.6,12-36.7-3.9-46.7c-5.4-3.4-10.7-5.1-16.1-5.1c-5.8,0-10.6,2-14.1,3.5
					c-1.6,0.7-3.6,1.5-4.4,1.5c-0.8,0-2.8-0.8-4.4-1.5c-3.5-1.5-8.2-3.5-14.1-3.5c-5.4,0-10.7,1.7-16.1,5.1
					c-15.9,10-8.7,32.1-3.9,46.7c1.5,4.5,2.9,8.8,3.1,11.1c0.4,4.1,0,9.2-0.5,14.7c-0.7,8.7-1.4,17.7,0.7,25.3
					c3.5,12.9,14.7,22.2,15.2,22.6c1,0.9,2.3,1.3,3.6,1.4c0.1,0,0.2,0,0.3,0c3.4,0,6.1-2.7,6.1-6.1c0-0.6-0.1-1.1-0.2-1.6
					c-0.5-3.1-3.2-20.5,0.8-31.6c3-8.3,7.4-12.6,9.3-13.8c1.9,1.2,6.3,5.5,9.3,13.8c4.4,12.2,0.8,31.9,0.8,32.1
					c-0.5,2.5,0.7,5.1,2.9,6.4c1,0.6,2,0.9,3.1,0.9c1.4,0,2.8-0.5,3.9-1.4c0.5-0.4,11.7-9.7,15.2-22.6c2.1-7.6,1.4-16.6,0.7-25.4
					c-0.4-5.5-0.8-10.7-0.5-14.7C79.9,79.6,81.3,75.4,82.8,70.8z"/>
			</g>
			<g>
				<path fill="#EAEAEA" d="M63.4,26.9c0,1.8-8.5,4.6-19.1,4.6c-10.5,0-19.1-2.7-19.1-4.6c0-1.8,8.6-0.7,19.1-0.7
					C54.9,26.1,63.4,25.1,63.4,26.9z"/>
			</g>
			<g>
				<path fill="#EAEAEA" d="M17.2,25.3c-6.2,16.6,30.3,9.5,30.3,9.5S23.4,36.5,17.2,25.3z"/>
			</g>
			<g>
				<path fill="#EAEAEA" d="M55.6,34.2c0,0,7.6,0.4,14-7.4c19.3,4.9,7.6,41.4,7.6,41.4s0-15.1-6.2-23.8C65,35.7,55.6,34.2,55.6,34.2
					z"/>
			</g>
		</g>
	</g>
</g>
<g id="Star_Favorite">
</g>
<g id="Events_Calendar">
</g>
</svg>
