<?xml version="1.0" encoding="utf-8"?>
<!-- Generator: Adobe Illustrator 18.1.1, SVG Export Plug-In . SVG Version: 6.00 Build 0)  -->
<!DOCTYPE svg PUBLIC "-//W3C//DTD SVG 1.1//EN" "http://www.w3.org/Graphics/SVG/1.1/DTD/svg11.dtd">
<svg version="1.1" xmlns="http://www.w3.org/2000/svg" xmlns:xlink="http://www.w3.org/1999/xlink" x="0px" y="0px"
	 viewBox="0 0 1155.5 21.5" enable-background="new 0 0 1155.5 21.5" xml:space="preserve">
<g id="Layer_1">
</g>
<g id="Star_Favorite">
</g>
<g id="Events_Calendar">
	<g>
		<path fill="#547B8D" stroke="#2D586B" stroke-miterlimit="10" d="M1144.8,0.5c-4.2,0-7.9,2.6-9.4,6.3H776.2
			c-1.6-3.7-5.2-6.3-9.4-6.3s-7.9,2.6-9.4,6.3H398.2c-1.6-3.7-5.2-6.3-9.4-6.3s-7.9,2.6-9.4,6.3H20.2c-1.6-3.7-5.2-6.3-9.4-6.3
			C5.1,0.5,0.5,5.1,0.5,10.7S5.1,21,10.8,21c4.2,0,7.9-2.6,9.4-6.3h359.1c1.6,3.7,5.2,6.3,9.4,6.3s7.9-2.6,9.4-6.3h359.1
			c1.6,3.7,5.2,6.3,9.4,6.3s7.9-2.6,9.4-6.3h359.1c1.6,3.7,5.2,6.3,9.4,6.3c5.7,0,10.3-4.6,10.3-10.3S1150.4,0.5,1144.8,0.5z"/>
		<path fill="#FFD400" d="M1144.6,4.3c-2.9,0-5.3,1.9-6.1,4.6H773.2c-0.8-2.6-3.2-4.6-6.1-4.6s-5.3,1.9-6.1,4.6H394.6
			c-0.8-2.6-3.2-4.6-6.1-4.6s-5.3,1.9-6.1,4.6H17.1c-0.8-2.6-3.2-4.6-6.1-4.6c-3.5,0-6.4,2.9-6.4,6.4s2.9,6.4,6.4,6.4
			c2.9,0,5.3-1.9,6.1-4.6h365.3c0.8,2.6,3.2,4.6,6.1,4.6s5.3-1.9,6.1-4.6h366.3c0.8,2.6,3.2,4.6,6.1,4.6s5.3-1.9,6.1-4.6h365.3
			c0.8,2.6,3.2,4.6,6.1,4.6c3.5,0,6.4-2.9,6.4-6.4S1148.2,4.3,1144.6,4.3z"/>
	</g>
</g>
</svg>
