<?xml version="1.0" encoding="utf-8"?>
<!-- Generator: Adobe Illustrator 18.1.1, SVG Export Plug-In . SVG Version: 6.00 Build 0)  -->
<svg version="1.1" id="Layer_1" xmlns="http://www.w3.org/2000/svg" xmlns:xlink="http://www.w3.org/1999/xlink" x="0px" y="0px"
	 viewBox="0 0 48 48" enable-background="new 0 0 48 48" xml:space="preserve">
<g>
	<g>
		<path fill="#FFFFFF" d="M37.7,21C39.4,15.8,42,8,36.3,4.4c-1.9-1.2-3.8-1.8-5.7-1.8c-2.1,0-3.8,0.7-5,1.2C25,4.1,24.3,4.4,24,4.4
			c-0.3,0-1-0.3-1.6-0.5c-1.2-0.5-2.9-1.2-5-1.2c-1.9,0-3.8,0.6-5.7,1.8C6,8,8.6,15.8,10.3,21c0.5,1.6,1,3.1,1.1,4
			c0.1,1.4,0,3.3-0.2,5.3c-0.2,3.1-0.5,6.3,0.2,9c1.3,4.6,5.2,7.9,5.4,8.1c0.4,0.3,0.8,0.5,1.3,0.5c0,0,0.1,0,0.1,0
			c1.2,0,2.2-1,2.2-2.2c0-0.2,0-0.4-0.1-0.6c-0.2-1.1-1.1-7.3,0.3-11.3c1.1-3,2.7-4.5,3.3-4.9c0.7,0.4,2.3,2,3.3,4.9
			c1.6,4.3,0.3,11.4,0.3,11.4c-0.2,0.9,0.2,1.8,1,2.3c0.3,0.2,0.7,0.3,1.1,0.3c0.5,0,1-0.2,1.4-0.5c0.2-0.1,4.2-3.5,5.4-8.1
			c0.7-2.7,0.5-5.9,0.2-9c-0.2-2-0.3-3.8-0.2-5.3C36.7,24.2,37.2,22.7,37.7,21z"/>
	</g>
</g>
<g>
	<g>
		<g>
			<path fill="#BEBEBE" d="M11.4,24.8c0.4-4.3-3.3-8.7-1.2-13.2c0.7-1.5,2-2.3,3.7-2.7c2-0.5,3.8,0.2,5.8,1c1.8,0.7,3.6,1.4,5.7,1.3
				c1.8-0.1,2.8-0.9,3.8-1.6c1.3-1,2.7-2.1,5.7-0.8c4.3,1.9,3.8,5,2.2,8.7c-1.1,2.4-0.2,7.3-0.2,7.3s-1.3-3.9-0.5-7.4
				c1-3.9,1.6-6-1.9-7.6C32,8.6,31,9.3,29.7,10.3c-1.1,0.8-2.3,1.8-4.4,1.9c-2.3,0.1-4.4-0.6-6.1-1.3c-1.9-0.7-3.5-1.3-5.1-0.9
				c-1.3,0.3-2.2,1.1-3,2.2C8.9,15.1,12.4,21.2,11.4,24.8z"/>
		</g>
	</g>
</g>
<g>
	<g>
		<path fill="#EBEAEA" d="M30.8,5.4C30.8,6,27.8,7,24,7c-3.8,0-6.8-1-6.8-1.6s3.1-0.3,6.8-0.3C27.8,5.1,30.8,4.7,30.8,5.4z"/>
	</g>
</g>
<g>
	<g>
		<path fill="#EBEAEA" d="M14.3,4.8c-2.2,5.9,10.8,3.4,10.8,3.4S16.5,8.8,14.3,4.8z"/>
	</g>
</g>
<g>
	<g>
		<polygon fill="#EAC964" points="33.7,0.1 35,2.5 37.3,3.7 35,5 33.7,7.4 32.4,5 30.1,3.7 32.4,2.5 		"/>
	</g>
	<g>
		<polygon fill="#EAC964" points="36.2,8.1 36.9,9.3 38.1,10 36.9,10.6 36.2,11.9 35.6,10.6 34.3,10 35.6,9.3 		"/>
	</g>
	<g>
		<polygon fill="#EAC964" points="28.8,6.3 29.6,8 31.3,8.9 29.6,9.8 28.8,11.4 27.9,9.8 26.2,8.9 27.9,8 		"/>
	</g>
</g>
</svg>
