<?xml version="1.0" encoding="utf-8"?>
<!-- Generator: Adobe Illustrator 18.1.1, SVG Export Plug-In . SVG Version: 6.00 Build 0)  -->
<svg version="1.1" id="Layer_1" xmlns="http://www.w3.org/2000/svg" xmlns:xlink="http://www.w3.org/1999/xlink" x="0px" y="0px"
	 viewBox="0 0 48 48" enable-background="new 0 0 48 48" xml:space="preserve">
<g>
	<path fill="#C8958F" d="M2.1,45.6C-4.1,43.7,6,28.3,9.8,27.4s3.3,0.7,4.4,2s18,2.7,19,0.8c0.8-1.6,0.9-2.8,2.4-3.1
		c6-1.1,17.6,18.8,9.5,19.4C32.6,47.4,13.3,49,2.1,45.6z"/>
</g>
<g>
	<g>
		<g>
			<path fill="#FFFFFF" d="M34,25.4c1.3-3.9,3.2-9.9-1-12.6c-1.5-0.9-2.9-1.4-4.3-1.4c-1.6,0-2.9,0.5-3.8,0.9
				c-0.4,0.2-1,0.4-1.2,0.4c-0.2,0-0.7-0.2-1.2-0.4c-0.9-0.4-2.2-0.9-3.8-0.9c-1.5,0-2.9,0.4-4.3,1.4c-4.3,2.7-2.3,8.6-1,12.6
				c0.4,1.2,0.8,2.4,0.8,3c0.1,1.1,0,2.5-0.1,4c-0.2,2.3-0.4,4.8,0.2,6.8c0.9,3.5,4,6,4.1,6.1c0.3,0.2,0.6,0.4,1,0.4
				c0,0,0.1,0,0.1,0c0.9,0,1.7-0.7,1.7-1.7c0-0.2,0-0.3-0.1-0.4c-0.1-0.8-0.9-5.5,0.2-8.5c0.8-2.2,2-3.4,2.5-3.7
				c0.5,0.3,1.7,1.5,2.5,3.7c1.2,3.3,0.2,8.6,0.2,8.6c-0.1,0.7,0.2,1.4,0.8,1.7c0.3,0.2,0.6,0.2,0.8,0.2c0.4,0,0.7-0.1,1.1-0.4
				c0.1-0.1,3.1-2.6,4.1-6.1c0.6-2,0.4-4.5,0.2-6.8c-0.1-1.5-0.2-2.9-0.1-4C33.2,27.8,33.6,26.6,34,25.4z"/>
		</g>
	</g>
	<g>
		<g>
			<path fill="#EBEAEA" d="M28.8,13.6c0,0.5-2.3,1.2-5.1,1.2c-2.8,0-5.1-0.7-5.1-1.2c0-0.5,2.3-0.2,5.1-0.2
				C26.5,13.4,28.8,13.1,28.8,13.6z"/>
		</g>
	</g>
	<g>
		<g>
			<path fill="#EBEAEA" d="M16.4,13.1c-1.7,4.5,8.2,2.6,8.2,2.6S18,16.2,16.4,13.1z"/>
		</g>
	</g>
	<g>
		<g>
			<path fill="#EBEAEA" d="M26.7,15.5c0,0,2.1,0.1,3.8-2c5.2,1.3,2.1,11.1,2.1,11.1s0-4.1-1.7-6.4C29.2,15.9,26.7,15.5,26.7,15.5z"
				/>
		</g>
	</g>
</g>
<g opacity="0.63">
	<circle fill="#F7FBFC" cx="14.6" cy="29" r="6.2"/>
</g>
<g>
	<polygon fill="#578759" points="18.7,27.3 18.1,26.7 13.5,31.3 10.7,28.6 10.1,29.2 13.5,32.6 13.5,32.6 13.5,32.6 	"/>
</g>
<g>
	<g>
		<path fill="#578759" d="M14.6,35.7c-3.7,0-6.7-3-6.7-6.7c0-3.7,3-6.7,6.7-6.7c3.7,0,6.7,3,6.7,6.7C21.3,32.7,18.3,35.7,14.6,35.7z
			 M14.6,23.4c-3.1,0-5.6,2.5-5.6,5.6s2.5,5.6,5.6,5.6s5.6-2.5,5.6-5.6S17.7,23.4,14.6,23.4z"/>
	</g>
</g>
</svg>
