<?xml version="1.0" encoding="utf-8"?>
<!-- Generator: Adobe Illustrator 18.1.1, SVG Export Plug-In . SVG Version: 6.00 Build 0)  -->
<svg version="1.1" xmlns="http://www.w3.org/2000/svg" xmlns:xlink="http://www.w3.org/1999/xlink" x="0px" y="0px"
	 viewBox="0 0 49 49" enable-background="new 0 0 49 49" xml:space="preserve">
<defs>
	<filter id="Adobe_OpacityMaskFilter" filterUnits="userSpaceOnUse">
		<feColorMatrix  type="matrix" values="1 0 0 0 0  0 1 0 0 0  0 0 1 0 0  0 0 0 1 0"/>
	</filter>
</defs>
<mask maskUnits="userSpaceOnUse" id="фон_xA0_Image_2_">
</mask>
<g id="фон_xA0_Image_1_" mask="url(#_xA0_Image_2_)">
</g>
<defs>
	<filter id="Adobe_OpacityMaskFilter_1_" filterUnits="userSpaceOnUse">
		<feColorMatrix  type="matrix" values="1 0 0 0 0  0 1 0 0 0  0 0 1 0 0  0 0 0 1 0"/>
	</filter>
</defs>
<mask maskUnits="userSpaceOnUse" id="фон_copy_xA0_Image_2_">
</mask>
<g id="фон_copy_xA0_Image_1_" mask="url(#_copy_xA0_Image_2_)">
</g>
<g id="Заголовки_1_">
	<g id="Заголовок_H1__x28_Roboto_Light_48_x29_">
	</g>
	<g id="Заголовок_H2__x28_Roboto_Light_36_x29_">
	</g>
	<g id="Заголовок_H3__x28_Roboto_Light_24_x29_">
	</g>
	<g id="Заголовки_2_">
	</g>
</g>
<g id="Кнопки_1_">
	<g id="Белая_кнопка_1_">
		<g id="Rounded_Rectangle_2_xA0_Image_1_">
		</g>
		<g id="белая_x0D_кнопка_2_">
		</g>
		<g id="Rounded_Rectangle_2_copy_xA0_Image_1_">
		</g>
		<g id="белая_x0D_кнопка_1_">
		</g>
		<g id="Rounded_Rectangle_2_copy_2_xA0_Image_1_">
		</g>
		<g id="белая_x0D_кнопка">
		</g>
	</g>
	<g id="Button_4_">
		<g id="Rounded_Rectangle_1_xA0_Image_5_">
		</g>
		<g id="button_2_">
		</g>
	</g>
	<g id="Подробнее_3_">
		<g id="Rounded_Rectangle_1_xA0_Image_3_">
		</g>
		<g id="Подробнее_4_">
		</g>
	</g>
	<g id="stars_copy_xA0_Image_1_">
	</g>
	<g id="Rounded_Rectangle_1_copy_xA0_Image_3_">
	</g>
	<g id="button_1_">
	</g>
	<g id="Rounded_Rectangle_1_copy_xA0_Image_1_">
	</g>
	<g id="Подробнее_2_">
	</g>
	<g id="Rounded_Rectangle_1_copy_2_xA0_Image_3_">
	</g>
	<g id="button">
	</g>
	<g id="Rounded_Rectangle_1_copy_2_xA0_Image_1_">
	</g>
	<g id="Подробнее_1_">
	</g>
	<g id="Rounded_Rectangle_1_xA0_Image_1_">
	</g>
	<g id="Button_3_">
	</g>
	<g id="Rounded_Rectangle_1_copy_3_xA0_Image_1_">
	</g>
	<g id="Button_2_">
	</g>
	<g id="Rounded_Rectangle_1_copy_4_xA0_Image_1_">
	</g>
	<g id="Button_1_">
	</g>
	<g id="кнопки">
	</g>
</g>
<g id="Ссылка_открывающая_элемент_...................................._3_">
</g>
<g id="Rectangle_2_1_" enable-background="new    ">
</g>
<g id="Желтая_ссылка_открывающая_элемент_............................._3_">
</g>
<g id="Rectangle_2_copy_1_" enable-background="new    ">
</g>
<g id="Желтая_ссылка_открывающая_элемент_............................._2_">
</g>
<g id="Ссылки_1_">
	<g id="Ссылка_на_другую_страницу_1_">
	</g>
	<g id="Ссылка_в_тексте_1_">
	</g>
	<g id="Ссылка_в_тексте">
	</g>
	<g id="Ссылка_открывающая_элемент_...................................._2_">
	</g>
	<g id="Ссылка_на_другую_страницу">
	</g>
	<g id="Ссылки_2_">
	</g>
	<g id="текст">
	</g>
</g>
<g id="меню_1_">
	<g id="content-menu_1_">
		<g id="Отзывы_1_">
			<g id="Отзывы_x0D_">
			</g>
		</g>
		<g id="Примеры_работ_1_">
			<g id="Примеры_работ_2_">
			</g>
		</g>
		<g id="Вопросы_и_ответы_1_">
			<g id="Вопросы_и_ответы_2_">
			</g>
		</g>
		<g id="Стоимость_1_">
			<g id="Стоимость_2_">
			</g>
		</g>
		<g id="Описание_1_">
			<g id="Описание_2_">
			</g>
		</g>
	</g>
	<g id="меню_2_">
	</g>
</g>
<g id="Стрелочки_1_">
	<g id="стрелочки">
	</g>
	<g id="картинки">
	</g>
	<g id="Кирсанова_Ольга_менеджер._войковская._xA0_Image_1_">
	</g>
	<g id="Кирсанова_Ольга_менеджер._войковская._copy_xA0_Image_1_">
	</g>
	<g id="Кирсанова_Ольга_менеджер._войковская._copy_2_xA0_Image_1_">
	</g>
	<g id="Лучший_столматолог_недели">
	</g>
	<g id="arrow_copy_3_xA0_Image_3_">
	</g>
	<g id="arrow_copy_3_xA0_Image_1_">
	</g>
</g>
<g id="Социалочки_x0D_">
</g>
<g id="Social_Twitter_Circular_Button_1_" enable-background="new    ">
</g>
<g id="Shape_1_2_" enable-background="new    ">
</g>
<g id="Facebook_Letter_Logo_1_" enable-background="new    ">
</g>
<g id="Google_1_" enable-background="new    ">
</g>
<g id="Social_Twitter_Circular_Button_copy_xA0_Image_1_">
</g>
<g id="Shape_1_copy_3_xA0_Image_1_">
</g>
<g id="Facebook_Letter_Logo_copy_xA0_Image_1_">
</g>
<g id="Google_copy_xA0_Image_1_">
</g>
<g id="Social_Twitter_Circular_Button_copy_2_1_" enable-background="new    ">
</g>
<g id="Shape_1_copy_4_1_" enable-background="new    ">
</g>
<g id="Facebook_Letter_Logo_copy_2_1_" enable-background="new    ">
</g>
<g id="Google_copy_2_1_" enable-background="new    ">
</g>
<g id="Немецкая_компания_DurrDental_разработала_новый_x2C__уникальный_аппа_1_">
</g>
<g id="Медаль_за_стаж_работы_в_Лидерстом_до_года_1_год_2_года_3-4__лет_1_">
</g>
<g id="First_Place_Medal_1_" enable-background="new    ">
</g>
<g id="First_Place_Medal_copy_14_1_" enable-background="new    ">
</g>
<g id="First_Place_Medal_copy_15_1_" enable-background="new    ">
</g>
<g id="First_Place_Medal_copy_2_1_" enable-background="new    ">
</g>
<g id="First_Place_Medal_copy_3_1_" enable-background="new    ">
</g>
<g id="First_Place_Medal_copy_8_1_" enable-background="new    ">
</g>
<g id="First_Place_Medal_copy_9_1_" enable-background="new    ">
</g>
<g id="Award_Medal_Of_Number_One_With_Olive_Branches_copy_2_1_" enable-background="new    ">
</g>
<g id="Film_Award_1_" enable-background="new    ">
</g>
<g id="Graduation_Student_Black_Cap_1_" enable-background="new    ">
</g>
<g id="Royal_Crown_1_" enable-background="new    ">
</g>
<g id="Rounded_Rectangle_3_1_" enable-background="new    ">
</g>
<g id="Account_Book_1_" enable-background="new    ">
</g>
<g id="Account_Book_copy_1_" enable-background="new    ">
</g>
<g id="Account_Book_copy_3_1_" enable-background="new    ">
</g>
<g id="Account_Book_copy_4_1_" enable-background="new    ">
</g>
<g id="_x3C_Type_x3E_">
</g>
<g id="price_badge_1_" enable-background="new    ">
</g>
<g id="Trophy_Cup_Black_Shape_copy_1_" enable-background="new    ">
</g>
<g id="Кандидат_мед._наук">
</g>
<g id="Запасной_вариант_3_">
</g>
<g id="Запасной_вариант_2_">
</g>
<g id="Запасной_вариант_1_">
</g>
<g id="Запасной_вариант">
</g>
<g id="price_badge_copy_1_" enable-background="new    ">
</g>
<g id="price_badge_copy_2_1_" enable-background="new    ">
</g>
<g id="First_Prize_Trophy_copy_1_" enable-background="new    ">
</g>
<g id="Speech_Balloons_With_Shadow_1_" enable-background="new    ">
</g>
<g id="Shape_2_1_" enable-background="new    ">
</g>
<g id="Shape_2_copy_1_" enable-background="new    ">
</g>
<g id="Shape_2_copy_2_1_" enable-background="new    ">
</g>
<g id="Ellipse_1_copy_2_1_" enable-background="new    ">
</g>
<g id="Ellipse_1_copy_3_1_" enable-background="new    ">
</g>
<g id="Speech_Balloons_With_Shadow_copy_1_" enable-background="new    ">
</g>
<g id="Football_Chalice_Shaped_Trophy_1_" enable-background="new    ">
</g>
<g id="Dollar_Sticker_1_" enable-background="new    ">
</g>
<g id="Dollar_Sticker_copy_1_" enable-background="new    ">
</g>
<g id="Medal_With_Star_1_" enable-background="new    ">
</g>
<g id="Certificate_Diploma_1_" enable-background="new    ">
</g>
<g id="Sale_Sticker_1_" enable-background="new    ">
</g>
<g id="Medal_With_Number_One_copy_1_" enable-background="new    ">
</g>
<g id="Oval_Chat_Speech_Bubble_With_A_Smiling_Face_Inside_copy_1_" enable-background="new    ">
</g>
<g id="Oval_Chat_Speech_Bubble_With_A_Smiling_Face_Inside_copy_2_1_" enable-background="new    ">
</g>
<g id="Oval_Chat_Speech_Bubble_With_A_Smiling_Face_Inside_copy_3_1_" enable-background="new    ">
</g>
<g id="Heart_1_" enable-background="new    ">
</g>
<g id="Thumb_Up_Filled_Gesture_1_" enable-background="new    ">
</g>
<g id="Shape_3_copy_1_" enable-background="new    ">
	<g id="Shape_3_copy">
		<g>
			<path fill="#EBAE08" d="M7.9,31.7c0,0,0.4-1.6-0.9-2.9C5.6,27.4,4,27.4,4,27.4s-0.4,1.9,0.9,3.2C6.1,31.9,7.9,31.7,7.9,31.7z
				 M11.4,25.6c0,0-1.3,1-1.6,2.8c-0.3,1.9,0.9,2.9,0.9,2.9s1.5-0.8,1.8-2.7C12.8,26.9,11.4,25.6,11.4,25.6z M13,36
				c0,0,1.4-1,1.4-2.9c0-1.9-1.5-2.9-1.5-2.9s-1.2,1.1-1.2,3C11.7,35.1,13,36,13,36z M16.4,38.7c0,0,1.3-1.2,1.1-3
				c-0.1-1.8-1.8-2.8-1.8-2.8s-1.1,1.2-0.9,3.1C15,37.9,16.4,38.7,16.4,38.7z M20.7,41c0,0,0.9-1.5,0.2-3.2
				c-0.7-1.7-2.5-2.1-2.5-2.1s-0.7,1.5,0,3.3C19.2,40.6,20.7,41,20.7,41z M8.5,27.7c0,0,1.2-1.1,0.8-3c-0.3-1.9-1.7-2.8-1.7-2.8
				s-1.3,1.3-1,3.1C6.9,26.9,8.5,27.7,8.5,27.7z M9.4,35.3c0,0-0.1-1.6-1.7-2.5c-1.6-0.9-3.2-0.4-3.2-0.4s0.2,1.9,1.8,2.8
				C7.9,36,9.4,35.3,9.4,35.3z M12.2,38.5c0,0-0.5-1.6-2.3-2.1c-1.8-0.5-3.2,0.3-3.2,0.3s0.6,1.8,2.3,2.3
				C10.8,39.5,12.2,38.5,12.2,38.5z M15.3,40.7c0,0-0.9-1.3-2.8-1.3c-1.9,0.1-3,1.3-3,1.3s1.1,1.6,2.9,1.5
				C14.3,42.1,15.3,40.7,15.3,40.7z M16.6,41.6c-1.9,0.3-2.8,1.6-2.8,1.6s1.3,1.4,3.1,1.1c1.8-0.3,2.6-1.8,2.6-1.8
				S18.5,41.3,16.6,41.6z M9.1,28.6l-0.9,0c0,0.1-0.2,9.9,14.4,14.3l0.3-0.9C9,37.8,9.1,29,9.1,28.6z M41.1,31.7c0,0,1.7,0.2,3-1.1
				c1.3-1.3,0.9-3.2,0.9-3.2s-1.6,0-2.9,1.4C40.8,30.2,41.1,31.7,41.1,31.7z M38.3,31.4c0,0,1.2-1.1,0.9-2.9
				c-0.3-1.9-1.6-2.8-1.6-2.8s-1.4,1.3-1.1,3.1C36.8,30.6,38.3,31.4,38.3,31.4z M36,36c0,0,1.3-0.9,1.3-2.8c0-1.9-1.2-3-1.2-3
				s-1.5,1.1-1.5,2.9C34.6,35,36,36,36,36z M31.4,35.7c-0.1,1.8,1.1,3,1.1,3s1.4-0.8,1.6-2.7c0.1-1.9-0.9-3.1-0.9-3.1
				S31.6,33.8,31.4,35.7z M28,37.7c-0.7,1.7,0.2,3.2,0.2,3.2s1.6-0.3,2.3-2.1c0.7-1.8,0-3.3,0-3.3S28.7,36,28,37.7z M39.7,24.7
				c-0.3,1.9,0.8,3,0.8,3s1.5-0.8,1.9-2.6c0.3-1.8-1-3.1-1-3.1S40,22.8,39.7,24.7z M41.3,32.8c-1.6,0.9-1.7,2.5-1.7,2.5
				s1.6,0.7,3.2-0.2c1.6-0.9,1.8-2.8,1.8-2.8S42.9,31.9,41.3,32.8z M39,36.4c-1.8,0.5-2.3,2.1-2.3,2.1s1.4,1.1,3.1,0.5
				c1.8-0.5,2.3-2.3,2.3-2.3S40.8,35.9,39,36.4z M36.5,39.4c-1.9-0.1-2.8,1.3-2.8,1.3s1,1.4,2.8,1.5c1.8,0.1,2.9-1.5,2.9-1.5
				S38.3,39.5,36.5,39.4z M32.4,41.6c-1.9-0.3-2.9,1-2.9,1s0.8,1.5,2.6,1.8c1.8,0.3,3.1-1.1,3.1-1.1S34.2,41.9,32.4,41.6z
				 M40.8,28.6l-0.9,0c0,0.4,0.1,9.2-13.8,13.4l0.3,0.9C41,38.5,40.8,28.7,40.8,28.6z M32.2,23.9C32.2,23.9,32.2,23.9,32.2,23.9
				c0.7,0,1.2-0.5,1.2-1.2c0-0.6-0.5-1.2-1.2-1.2c-0.7,0-1.2,0.5-1.2,1.2c0,0.1,0,0.2,0.1,0.4l-2.9,1.7l-3.1-5
				c0.3-0.2,0.5-0.6,0.5-1c0-0.6-0.5-1.2-1.2-1.2c-0.7,0-1.2,0.5-1.2,1.2c0,0.4,0.2,0.8,0.5,1l-3.1,5l-2.9-1.7
				c0-0.1,0.1-0.2,0.1-0.4c0-0.6-0.5-1.2-1.2-1.2c-0.7,0-1.2,0.5-1.2,1.2c0,0.6,0.5,1.2,1.2,1.2c0,0,0,0,0,0l1.6,5.7h6.2h6.2
				L32.2,23.9z M24.4,6.7c8.1,0,14.8,6.1,15.8,13.9h2.1c-1-9-8.6-16-17.9-16c-9.3,0-16.9,7-17.9,16h2.1C9.6,12.7,16.3,6.7,24.4,6.7z
				 M24.4,11.2c6.3,0,11.4,5.1,11.4,11.4c0,0.3,0,0.7-0.1,1h1.5c0-0.3,0.1-0.7,0.1-1c0-7.1-5.8-12.9-12.9-12.9
				c-7.1,0-12.9,5.8-12.9,12.9c0,0.3,0,0.7,0.1,1h1.5c0-0.3-0.1-0.7-0.1-1C13.1,16.3,18.2,11.2,24.4,11.2z"/>
		</g>
	</g>
</g>
<g id="Christmas_Star_Symbol_Of_Five_Points_copy_1_" enable-background="new    ">
</g>
<g id="Group_2_1_">
</g>
<g id="Stars_1_" enable-background="new    ">
</g>
<g id="Stars_copy_1_" enable-background="new    ">
</g>
<g id="Star_Shape_Silhouette_1_" enable-background="new    ">
</g>
</svg>
