<?xml version="1.0" encoding="utf-8"?>
<!-- Generator: Adobe Illustrator 18.1.1, SVG Export Plug-In . SVG Version: 6.00 Build 0)  -->
<svg version="1.1" xmlns="http://www.w3.org/2000/svg" xmlns:xlink="http://www.w3.org/1999/xlink" x="0px" y="0px"
	 viewBox="0 0 49 49" enable-background="new 0 0 49 49" xml:space="preserve">
<defs>
	<filter id="Adobe_OpacityMaskFilter" filterUnits="userSpaceOnUse">
		<feColorMatrix  type="matrix" values="1 0 0 0 0  0 1 0 0 0  0 0 1 0 0  0 0 0 1 0"/>
	</filter>
</defs>
<mask maskUnits="userSpaceOnUse" id="фон_xA0_Image_2_">
</mask>
<g id="фон_xA0_Image_1_" mask="url(#_xA0_Image_2_)">
</g>
<defs>
	<filter id="Adobe_OpacityMaskFilter_1_" filterUnits="userSpaceOnUse">
		<feColorMatrix  type="matrix" values="1 0 0 0 0  0 1 0 0 0  0 0 1 0 0  0 0 0 1 0"/>
	</filter>
</defs>
<mask maskUnits="userSpaceOnUse" id="фон_copy_xA0_Image_2_">
</mask>
<g id="фон_copy_xA0_Image_1_" mask="url(#_copy_xA0_Image_2_)">
</g>
<g id="Заголовки_1_">
	<g id="Заголовок_H1__x28_Roboto_Light_48_x29_">
	</g>
	<g id="Заголовок_H2__x28_Roboto_Light_36_x29_">
	</g>
	<g id="Заголовок_H3__x28_Roboto_Light_24_x29_">
	</g>
	<g id="Заголовки_2_">
	</g>
</g>
<g id="Кнопки_1_">
	<g id="Белая_кнопка_1_">
		<g id="Rounded_Rectangle_2_xA0_Image_1_">
		</g>
		<g id="белая_x0D_кнопка_2_">
		</g>
		<g id="Rounded_Rectangle_2_copy_xA0_Image_1_">
		</g>
		<g id="белая_x0D_кнопка_1_">
		</g>
		<g id="Rounded_Rectangle_2_copy_2_xA0_Image_1_">
		</g>
		<g id="белая_x0D_кнопка">
		</g>
	</g>
	<g id="Button_4_">
		<g id="Rounded_Rectangle_1_xA0_Image_5_">
		</g>
		<g id="button_2_">
		</g>
	</g>
	<g id="Подробнее_3_">
		<g id="Rounded_Rectangle_1_xA0_Image_3_">
		</g>
		<g id="Подробнее_4_">
		</g>
	</g>
	<g id="stars_copy_xA0_Image_1_">
	</g>
	<g id="Rounded_Rectangle_1_copy_xA0_Image_3_">
	</g>
	<g id="button_1_">
	</g>
	<g id="Rounded_Rectangle_1_copy_xA0_Image_1_">
	</g>
	<g id="Подробнее_2_">
	</g>
	<g id="Rounded_Rectangle_1_copy_2_xA0_Image_3_">
	</g>
	<g id="button">
	</g>
	<g id="Rounded_Rectangle_1_copy_2_xA0_Image_1_">
	</g>
	<g id="Подробнее_1_">
	</g>
	<g id="Rounded_Rectangle_1_xA0_Image_1_">
	</g>
	<g id="Button_3_">
	</g>
	<g id="Rounded_Rectangle_1_copy_3_xA0_Image_1_">
	</g>
	<g id="Button_2_">
	</g>
	<g id="Rounded_Rectangle_1_copy_4_xA0_Image_1_">
	</g>
	<g id="Button_1_">
	</g>
	<g id="кнопки">
	</g>
</g>
<g id="Ссылка_открывающая_элемент_...................................._3_">
</g>
<g id="Rectangle_2_1_" enable-background="new    ">
</g>
<g id="Желтая_ссылка_открывающая_элемент_............................._3_">
</g>
<g id="Rectangle_2_copy_1_" enable-background="new    ">
</g>
<g id="Желтая_ссылка_открывающая_элемент_............................._2_">
</g>
<g id="Ссылки_1_">
	<g id="Ссылка_на_другую_страницу_1_">
	</g>
	<g id="Ссылка_в_тексте_1_">
	</g>
	<g id="Ссылка_в_тексте">
	</g>
	<g id="Ссылка_открывающая_элемент_...................................._2_">
	</g>
	<g id="Ссылка_на_другую_страницу">
	</g>
	<g id="Ссылки_2_">
	</g>
	<g id="текст">
	</g>
</g>
<g id="меню_1_">
	<g id="content-menu_1_">
		<g id="Отзывы_1_">
			<g id="Отзывы_x0D_">
			</g>
		</g>
		<g id="Примеры_работ_1_">
			<g id="Примеры_работ_2_">
			</g>
		</g>
		<g id="Вопросы_и_ответы_1_">
			<g id="Вопросы_и_ответы_2_">
			</g>
		</g>
		<g id="Стоимость_1_">
			<g id="Стоимость_2_">
			</g>
		</g>
		<g id="Описание_1_">
			<g id="Описание_2_">
			</g>
		</g>
	</g>
	<g id="меню_2_">
	</g>
</g>
<g id="Стрелочки_1_">
	<g id="стрелочки">
	</g>
	<g id="картинки">
	</g>
	<g id="Кирсанова_Ольга_менеджер._войковская._xA0_Image_1_">
	</g>
	<g id="Кирсанова_Ольга_менеджер._войковская._copy_xA0_Image_1_">
	</g>
	<g id="Кирсанова_Ольга_менеджер._войковская._copy_2_xA0_Image_1_">
	</g>
	<g id="Лучший_столматолог_недели">
	</g>
	<g id="arrow_copy_3_xA0_Image_3_">
	</g>
	<g id="arrow_copy_3_xA0_Image_1_">
	</g>
</g>
<g id="Социалочки_x0D_">
</g>
<g id="Social_Twitter_Circular_Button_1_" enable-background="new    ">
</g>
<g id="Shape_1_2_" enable-background="new    ">
</g>
<g id="Facebook_Letter_Logo_1_" enable-background="new    ">
</g>
<g id="Google_1_" enable-background="new    ">
</g>
<g id="Social_Twitter_Circular_Button_copy_xA0_Image_1_">
</g>
<g id="Shape_1_copy_3_xA0_Image_1_">
</g>
<g id="Facebook_Letter_Logo_copy_xA0_Image_1_">
</g>
<g id="Google_copy_xA0_Image_1_">
</g>
<g id="Social_Twitter_Circular_Button_copy_2_1_" enable-background="new    ">
</g>
<g id="Shape_1_copy_4_1_" enable-background="new    ">
</g>
<g id="Facebook_Letter_Logo_copy_2_1_" enable-background="new    ">
</g>
<g id="Google_copy_2_1_" enable-background="new    ">
</g>
<g id="Немецкая_компания_DurrDental_разработала_новый_x2C__уникальный_аппа_1_">
</g>
<g id="Медаль_за_стаж_работы_в_Лидерстом_до_года_1_год_2_года_3-4__лет_1_">
</g>
<g id="First_Place_Medal_1_" enable-background="new    ">
</g>
<g id="First_Place_Medal_copy_14_1_" enable-background="new    ">
</g>
<g id="First_Place_Medal_copy_15_1_" enable-background="new    ">
</g>
<g id="First_Place_Medal_copy_2_1_" enable-background="new    ">
</g>
<g id="First_Place_Medal_copy_3_1_" enable-background="new    ">
</g>
<g id="First_Place_Medal_copy_8_1_" enable-background="new    ">
</g>
<g id="First_Place_Medal_copy_9_1_" enable-background="new    ">
</g>
<g id="Award_Medal_Of_Number_One_With_Olive_Branches_copy_2_1_" enable-background="new    ">
</g>
<g id="Film_Award_1_" enable-background="new    ">
</g>
<g id="Graduation_Student_Black_Cap_1_" enable-background="new    ">
</g>
<g id="Royal_Crown_1_" enable-background="new    ">
</g>
<g id="Rounded_Rectangle_3_1_" enable-background="new    ">
	<g id="Rounded_Rectangle_3">
		<g>
			<path fill="#EBAE08" d="M41.1,10.9c-1.3,0-2.4,1.1-2.4,2.4c0,0.7,0.3,1.4,0.9,1.8L34,21.9l-2.8-6.5c0.8-0.4,1.4-1.2,1.4-2.2
				c0-1.3-1.1-2.4-2.4-2.4c-1.3,0-2.4,1.1-2.4,2.4c0,0.8,0.4,1.6,1.1,2l-4.4,6.7l-4.4-6.7c0.6-0.4,1.1-1.2,1.1-2
				c0-1.3-1.1-2.4-2.4-2.4c-1.3,0-2.4,1.1-2.4,2.4c0,1,0.6,1.8,1.4,2.2L15,21.9l-5.6-6.8c0.5-0.4,0.9-1.1,0.9-1.8
				c0-1.3-1.1-2.4-2.4-2.4c-1.3,0-2.4,1.1-2.4,2.4c0,1.3,1.1,2.4,2.4,2.4c0.2,0,0.4,0,0.6-0.1l3.9,16c0.1,0.2,0.2,0.4,0.4,0.6h23.4
				c0.2-0.2,0.3-0.4,0.4-0.6l3.9-16c0.2,0,0.4,0.1,0.6,0.1c1.3,0,2.4-1.1,2.4-2.4C43.5,11.9,42.4,10.9,41.1,10.9z M36.8,33.9H13.1
				c-0.8,0-1.5,0.7-1.5,1.5v1.3c0,0.8,0.7,1.5,1.5,1.5h23.8c0.8,0,1.5-0.7,1.5-1.5v-1.3C38.3,34.5,37.7,33.9,36.8,33.9z"/>
		</g>
	</g>
</g>
<g id="Account_Book_1_" enable-background="new    ">
</g>
<g id="Account_Book_copy_1_" enable-background="new    ">
</g>
<g id="Account_Book_copy_3_1_" enable-background="new    ">
</g>
<g id="Account_Book_copy_4_1_" enable-background="new    ">
</g>
<g id="_x3C_Type_x3E_">
</g>
<g id="price_badge_1_" enable-background="new    ">
</g>
<g id="Trophy_Cup_Black_Shape_copy_1_" enable-background="new    ">
</g>
<g id="Кандидат_мед._наук">
</g>
<g id="Запасной_вариант_3_">
</g>
<g id="Запасной_вариант_2_">
</g>
<g id="Запасной_вариант_1_">
</g>
<g id="Запасной_вариант">
</g>
<g id="price_badge_copy_1_" enable-background="new    ">
</g>
<g id="price_badge_copy_2_1_" enable-background="new    ">
</g>
<g id="First_Prize_Trophy_copy_1_" enable-background="new    ">
</g>
<g id="Speech_Balloons_With_Shadow_1_" enable-background="new    ">
</g>
<g id="Shape_2_1_" enable-background="new    ">
</g>
<g id="Shape_2_copy_1_" enable-background="new    ">
</g>
<g id="Shape_2_copy_2_1_" enable-background="new    ">
</g>
<g id="Ellipse_1_copy_2_1_" enable-background="new    ">
</g>
<g id="Ellipse_1_copy_3_1_" enable-background="new    ">
</g>
<g id="Speech_Balloons_With_Shadow_copy_1_" enable-background="new    ">
</g>
<g id="Football_Chalice_Shaped_Trophy_1_" enable-background="new    ">
</g>
<g id="Dollar_Sticker_1_" enable-background="new    ">
</g>
<g id="Dollar_Sticker_copy_1_" enable-background="new    ">
</g>
<g id="Medal_With_Star_1_" enable-background="new    ">
</g>
<g id="Certificate_Diploma_1_" enable-background="new    ">
</g>
<g id="Sale_Sticker_1_" enable-background="new    ">
</g>
<g id="Medal_With_Number_One_copy_1_" enable-background="new    ">
</g>
<g id="Oval_Chat_Speech_Bubble_With_A_Smiling_Face_Inside_copy_1_" enable-background="new    ">
</g>
<g id="Oval_Chat_Speech_Bubble_With_A_Smiling_Face_Inside_copy_2_1_" enable-background="new    ">
</g>
<g id="Oval_Chat_Speech_Bubble_With_A_Smiling_Face_Inside_copy_3_1_" enable-background="new    ">
</g>
<g id="Heart_1_" enable-background="new    ">
</g>
<g id="Thumb_Up_Filled_Gesture_1_" enable-background="new    ">
</g>
<g id="Shape_3_copy_1_" enable-background="new    ">
</g>
<g id="Christmas_Star_Symbol_Of_Five_Points_copy_1_" enable-background="new    ">
</g>
<g id="Group_2_1_">
</g>
<g id="Stars_1_" enable-background="new    ">
</g>
<g id="Stars_copy_1_" enable-background="new    ">
</g>
<g id="Star_Shape_Silhouette_1_" enable-background="new    ">
</g>
</svg>
