<?xml version="1.0" encoding="utf-8"?>
<!-- Generator: Adobe Illustrator 17.1.0, SVG Export Plug-In . SVG Version: 6.00 Build 0)  -->
<!DOCTYPE svg PUBLIC "-//W3C//DTD SVG 1.1//EN" "http://www.w3.org/Graphics/SVG/1.1/DTD/svg11.dtd">
<svg version="1.1" id="Objects" xmlns="http://www.w3.org/2000/svg" xmlns:xlink="http://www.w3.org/1999/xlink" x="0px" y="0px"
	 viewBox="0 0 800 800" enable-background="new 0 0 800 800" xml:space="preserve">
<g>
	<path fill="#FFFFFF" d="M612.2,357.2c26.4-80.7,66.3-202.8-21.5-258.2c-30-18.9-59.2-28.2-89.1-28.2c-32.3,0-58.6,11.2-77.9,19.3
		c-8.8,3.7-19.8,8.4-24.2,8.4c-4.4,0-15.4-4.7-24.2-8.4C356,82,329.7,70.8,297.4,70.8c-29.9,0-59.1,9.2-89.1,28.2
		c-87.9,55.5-48,177.5-21.5,258.2c8.2,25,15.9,48.6,17,61.3c2,22.4-0.2,51.1-2.6,81.5c-3.8,48.2-7.8,98.1,3.7,140.2
		c19.4,71.2,81.3,123,83.9,125.2c5.8,4.8,12.7,7.4,19.9,7.7c0.6,0,1.3,0,1.9,0c18.7,0,33.9-15.2,33.9-33.9c0-3.1-0.4-6.1-1.2-8.9
		c-2.9-17.1-17.7-113.3,4.6-174.8c16.6-45.8,41.1-69.9,51.6-76.3c10.5,6.4,35,30.5,51.6,76.3c24.4,67.3,4.4,176.3,4.1,177.4
		c-2.7,14,3.8,28.2,16.1,35.5c5.4,3.2,11.3,4.7,17.3,4.7c7.7,0,15.4-2.6,21.6-7.8c2.6-2.2,64.5-53.9,83.9-125.2
		c11.5-42.1,7.5-92,3.7-140.2c-2.4-30.3-4.7-59-2.6-81.4C596.3,405.8,604,382.2,612.2,357.2z"/>
</g>
<g>
	<g>
		<path fill="#C1C1C1" d="M203.4,415.5c6.3-66-50.9-134.7-18.6-204.6c10.4-22.5,31.2-35.6,56.6-41.6c30.9-7.2,59.2,3.5,89.2,14.9
			c27.2,10.4,55.4,21.1,88.2,19.4c28.1-1.4,43.9-13.7,59.2-25.6c20.9-16.2,42.4-32.9,88.1-12.4c66.7,30,58.8,77.8,33.5,134.1
			c-16.4,36.5-3.6,112.9-3.6,112.9s-20.8-60.3-7.1-114.3c15.2-60.2,24.3-93.3-29.6-117.5c-36.5-16.4-51-5.2-71.1,10.4
			c-16.5,12.8-35.3,27.4-68.6,29c-36.3,1.8-67.5-10-94.9-20.5c-28.8-10.9-53.6-20.4-79.5-14.3c-20.7,4.9-34.1,17.5-46,33.6
			C165.4,265.2,219.3,359.9,203.4,415.5z"/>
	</g>
</g>
<g>
	<path fill="#ECECEC" d="M505.1,114.1c0,10-47.3,25.2-105.6,25.2c-58.3,0-105.6-15.2-105.6-25.2s47.3-4.1,105.6-4.1
		C457.8,110,505.1,104.1,505.1,114.1z"/>
</g>
<g>
	<path fill="#ECECEC" d="M249.6,105.3c-34,91.6,167.8,52.8,167.8,52.8S283.7,167.5,249.6,105.3z"/>
</g>
<g>
	<polygon fill="#FFCF53" points="550,32.9 569.8,69.1 606,88.9 569.8,108.7 550,144.9 530.2,108.7 494,88.9 530.2,69.1 	"/>
	<polygon fill="#FFCF53" points="589.1,155.9 599.5,174.9 618.6,185.3 599.5,195.7 589.1,214.8 578.7,195.7 559.6,185.3 
		578.7,174.9 	"/>
	<polygon fill="#FFCF53" points="473.1,129.3 487,154.7 512.4,168.6 487,182.4 473.1,207.8 459.2,182.4 433.9,168.6 459.2,154.7 	
		"/>
</g>
</svg>
